Publication
…
        female
38 (14%)

        male
237 (86%)

    farming_years
13

      1 n (%); Mean

Biologicals Knowledge

# A tibble: 275 × 10
   pesticide_purpose fertilizer_purpose knows_pesticeide_type
   <chr>             <chr>              <chr>                
 1 Insufficient      Insufficient       Insufficient         
 2 Sufficient        Sufficient         Sufficient           
 3 Sufficient        Sufficient         Insufficient         
 4 Sufficient        Sufficient         Insufficient         
 5 Sufficient        Sufficient         Insufficient         
 6 Insufficient      Insufficient       Insufficient         
 7 Sufficient        Sufficient         Sufficient           
 8 Sufficient        Sufficient         Insufficient         
 9 Insufficient      Sufficient         Insufficient         
10 Sufficient        Sufficient         Insufficient         
# ℹ 265 more rows
# ℹ 7 more variables: knows_pesticide_content <chr>,
#   human_healthy_effects <chr>, animal_healthy_effects <chr>,
#   environment_effects <chr>, crop_production_effects <chr>, mitigation <chr>,
#   input_choice <chr>

Biologicals Attitude

# A tibble: 275 × 9
   Biologicals_increase_yield_of…¹ Biologicals_increase…² biologicals_advantag…³
   <chr>                           <chr>                  <chr>                 
 1 Preferrable                     Unpreferrable          Unpreferrable         
 2 Preferrable                     Preferrable            Unpreferrable         
 3 Preferrable                     Preferrable            Preferrable           
 4 Preferrable                     Unpreferrable          Preferrable           
 5 Preferrable                     Preferrable            Preferrable           
 6 Unpreferrable                   Preferrable            Preferrable           
 7 Preferrable                     Preferrable            Preferrable           
 8 Preferrable                     Preferrable            Preferrable           
 9 Preferrable                     Preferrable            Preferrable           
10 Preferrable                     Preferrable            Preferrable           
# ℹ 265 more rows
# ℹ abbreviated names: ¹​Biologicals_increase_yield_of_crops,
#   ²​Biologicals_increase_incomes, ³​biologicals_advantageous
# ℹ 6 more variables: Biologicals_can_produce_healthy_food <chr>,
#   recommend_biologicals <chr>, government_support_biologicals <chr>,
#   Biologicals_risk_free <chr>, biologicals_environmentally_safe <chr>,
#   biologicals_use_unconditional <chr>

Biologivals Practices

# A tibble: 275 × 7
   usse_agricultural_inputs agricultural_input bought_safer_pesticide
   <chr>                    <chr>              <chr>                 
 1 Valid                    Valid              Invalid               
 2 Valid                    Valid              Valid                 
 3 Valid                    Valid              Invalid               
 4 Valid                    Valid              Invalid               
 5 Valid                    Valid              Invalid               
 6 Valid                    Valid              Invalid               
 7 Valid                    Valid              Invalid               
 8 Valid                    Valid              Invalid               
 9 Valid                    Valid              Invalid               
10 Valid                    Valid              Invalid               
# ℹ 265 more rows
# ℹ 4 more variables: Biological_use_times <chr>, use_biologicals <chr>,
#   used_biologicals_last_farming_season <chr>, biologicals_use_frequency <chr>
